<svg width="24" height="24" viewBox="0 0 24 24" fill="none" xmlns="http://www.w3.org/2000/svg">
<path d="M17.4721 14.382C17.1751 14.233 15.7141 13.515 15.4421 13.415C15.1691 13.316 14.9711 13.267 14.7721 13.565C14.5751 13.862 14.0051 14.531 13.8321 14.729C13.6591 14.928 13.4851 14.952 13.1881 14.804C12.8911 14.654 11.9331 14.341 10.7981 13.329C9.91513 12.541 9.31813 11.568 9.14513 11.27C8.97213 10.973 9.12713 10.812 9.27513 10.664C9.40913 10.531 9.57313 10.317 9.72113 10.144C9.87013 9.97004 9.91913 9.84604 10.0191 9.64704C10.1181 9.44904 10.0691 9.27604 9.99413 9.12704C9.91913 8.97804 9.32513 7.51504 9.07813 6.92004C8.83613 6.34104 8.59113 6.42004 8.40913 6.41004C8.23613 6.40204 8.03813 6.40004 7.83913 6.40004C7.64113 6.40004 7.31913 6.47404 7.04713 6.77204C6.77513 7.06904 6.00713 7.78804 6.00713 9.25104C6.00713 10.713 7.07213 12.126 7.22013 12.325C7.36913 12.523 9.31613 15.525 12.2971 16.812C13.0061 17.118 13.5591 17.301 13.9911 17.437C14.7031 17.664 15.3511 17.632 15.8621 17.555C16.4331 17.47 17.6201 16.836 17.8681 16.142C18.1161 15.448 18.1161 14.853 18.0411 14.729C17.9671 14.605 17.7691 14.531 17.4711 14.382M12.0501 21.785H12.0461C10.2759 21.7852 8.53821 21.3092 7.01513 20.407L6.65413 20.193L2.91313 21.175L3.91113 17.527L3.67613 17.153C2.68657 15.5773 2.16307 13.7537 2.16613 11.893C2.16713 6.44304 6.60213 2.00904 12.0541 2.00904C14.6941 2.00904 17.1761 3.03904 19.0421 4.90704C19.9628 5.82366 20.6926 6.91377 21.1891 8.11428C21.6857 9.3148 21.9393 10.6019 21.9351 11.901C21.9321 17.351 17.4981 21.785 12.0501 21.785ZM20.4631 3.48804C19.3613 2.37896 18.0504 1.49958 16.6062 0.900841C15.1621 0.302105 13.6135 -0.00407625 12.0501 4.09775e-05C5.49513 4.09775e-05 0.160129 5.33504 0.157129 11.892C0.157129 13.988 0.704129 16.034 1.74513 17.837L0.0571289 24L6.36213 22.346C8.10572 23.296 10.0596 23.7938 12.0451 23.794H12.0501C18.6041 23.794 23.9401 18.459 23.9431 11.901C23.948 10.3383 23.6429 8.79014 23.0456 7.34607C22.4482 5.90201 21.5705 4.59071 20.4631 3.48804Z" fill="white"/>
</svg>
